%YAML 1.1
%TAG !u! tag:unity3d.com,2011:
--- !u!114 &11400000
MonoBehaviour:
  m_ObjectHideFlags: 0
  m_CorrespondingSourceObject: {fileID: 0}
  m_PrefabInstance: {fileID: 0}
  m_PrefabAsset: {fileID: 0}
  m_GameObject: {fileID: 0}
  m_Enabled: 1
  m_EditorHideFlags: 0
  m_Script: {fileID: 11500000, guid: ebb9f53fcf91ed94b8a69e80c38b7ea0, type: 3}
  m_Name: Wave7
  m_EditorClassIdentifier: 
  rewardType: 0
  MiniWaveList:
  - enemySettingList:
    - enemyType: {fileID: 3220290103128657031, guid: b60ef050de65835419bc7474bbc0e865, type: 3}
      enemyCount: 3
    - enemyType: {fileID: 3147878828230033857, guid: e9217f6448cd3de4fa03b7d451397d70, type: 3}
      enemyCount: 3
    - enemyType: {fileID: 6218345751360208741, guid: 33139be31aab179419ee2c406d1e3d37, type: 3}
      enemyCount: 2
    - enemyType: {fileID: 1888585986301863720, guid: 8feca91aa22587240860d3458a78be23, type: 3}
      enemyCount: 1
